{
  "vhosts": [
    {
      "name": "/"
    },
    {
      "name": "rabbitmq"
    }
  ],
  "permissions": [
    {
      "user": "guest",
      "vhost": "/",
      "configure": ".*",
      "write": ".*",
      "read": ".*"
    },
    {
      "user": "guest",
      "vhost": "rabbitmq",
      "configure": ".*",
      "write": ".*",
      "read": ".*"
    }
  ]
}